General Purpose Processor Design/General Purpose Processor Design/Lab 6/simulation/qsim/lab6.msim.vcd
$comment
	File created using the following command:
		vcd file lab6.msim.vcd -direction
$end
$date
	Wed Nov 27 11:38:51 2024
$end
$version
	ModelSim Version 10.1d
$end
$timescale
	1ps
$end
$scope module ALU_vlg_vec_tst $end
$var reg 8 ! A [7:0] $end
$var reg 1 " aluClk $end
$var reg 8 # B [7:0] $end
$var reg 1 $ clk $end
$var reg 1 % data_in $end
$var reg 1 & Enable_Decoder $end
$var reg 1 ' FSM_reset $end
$var reg 1 ( Reset_A $end
$var reg 1 ) Reset_B $end
$var wire 1 * Neg $end
$var wire 1 + OutA [3] $end
$var wire 1 , OutA [2] $end
$var wire 1 - OutA [1] $end
$var wire 1 . OutA [0] $end
$var wire 1 / OutB [3] $end
$var wire 1 0 OutB [2] $end
$var wire 1 1 OutB [1] $end
$var wire 1 2 OutB [0] $end
$var wire 1 3 sampler $end
$scope module i1 $end
$var wire 1 4 gnd $end
$var wire 1 5 vcc $end
$var wire 1 6 unknown $end
$var tri1 1 7 devclrn $end
$var tri1 1 8 devpor $end
$var tri1 1 9 devoe $end
$var wire 1 : inst3|Add0~6_combout $end
$var wire 1 ; inst3|Add2~0_combout $end
$var wire 1 < inst3|Add1~10_combout $end
$var wire 1 = inst3|Add1~13 $end
$var wire 1 > inst3|Add1~14_combout $end
$var wire 1 ? inst3|Selector4~1_combout $end
$var wire 1 @ inst3|Selector6~0_combout $end
$var wire 1 A inst3|Selector7~3_combout $end
$var wire 1 B inst3|Selector7~4_combout $end
$var wire 1 C inst3|Selector7~9_combout $end
$var wire 1 D inst3|Selector0~0_combout $end
$var wire 1 E inst3|Selector0~2_combout $end
$var wire 1 F inst3|Selector1~0_combout $end
$var wire 1 G inst3|Selector2~0_combout $end
$var wire 1 H inst3|Selector2~2_combout $end
$var wire 1 I inst3|Selector3~0_combout $end
$var wire 1 J clk~combout $end
$var wire 1 K clk~clkctrl_outclk $end
$var wire 1 L aluClk~combout $end
$var wire 1 M aluClk~clkctrl_outclk $end
$var wire 1 N Enable_Decoder~combout $end
$var wire 1 O Reset_A~combout $end
$var wire 1 P Reset_A~clkctrl_outclk $end
$var wire 1 Q Reset_B~combout $end
$var wire 1 R Reset_B~clkctrl_outclk $end
$var wire 1 S inst3|LessThan0~1_cout $end
$var wire 1 T inst3|LessThan0~3_cout $end
$var wire 1 U inst3|LessThan0~5_cout $end
$var wire 1 V inst3|LessThan0~7_cout $end
$var wire 1 W inst3|LessThan0~9_cout $end
$var wire 1 X inst3|LessThan0~11_cout $end
$var wire 1 Y inst3|LessThan0~13_cout $end
$var wire 1 Z inst3|LessThan0~14_combout $end
$var wire 1 [ data_in~combout $end
$var wire 1 \ inst10|Selector2~0_combout $end
$var wire 1 ] FSM_reset~combout $end
$var wire 1 ^ FSM_reset~clkctrl_outclk $end
$var wire 1 _ inst10|yfsm.s2~regout $end
$var wire 1 ` inst10|Selector3~0_combout $end
$var wire 1 a inst10|yfsm.s3~regout $end
$var wire 1 b inst10|Selector4~0_combout $end
$var wire 1 c inst10|yfsm.s4~regout $end
$var wire 1 d inst10|Selector5~0_combout $end
$var wire 1 e inst10|yfsm.s5~regout $end
$var wire 1 f inst10|Selector6~0_combout $end
$var wire 1 g inst10|yfsm.s6~regout $end
$var wire 1 h inst10|Selector7~0_combout $end
$var wire 1 i inst10|yfsm.s7~regout $end
$var wire 1 j inst10|Selector0~0_combout $end
$var wire 1 k inst10|yfsm.s0~regout $end
$var wire 1 l inst10|Selector1~0_combout $end
$var wire 1 m inst10|yfsm.s1~regout $end
$var wire 1 n inst3|Neg~0_combout $end
$var wire 1 o inst3|Neg~regout $end
$var wire 1 p inst3|Selector4~0_combout $end
$var wire 1 q inst3|Selector4~6_combout $end
$var wire 1 r inst3|Add2~1 $end
$var wire 1 s inst3|Add2~3 $end
$var wire 1 t inst3|Add2~5 $end
$var wire 1 u inst3|Add2~6_combout $end
$var wire 1 v inst3|Result[3]~1_combout $end
$var wire 1 w inst3|Result[3]~2_combout $end
$var wire 1 x inst3|Selector7~0_combout $end
$var wire 1 y inst3|Selector4~3_combout $end
$var wire 1 z inst3|Selector4~4_combout $end
$var wire 1 { inst3|Result[3]~0_combout $end
$var wire 1 | inst3|Add1~1 $end
$var wire 1 } inst3|Add1~3 $end
$var wire 1 ~ inst3|Add1~5 $end
$var wire 1 !! inst3|Add1~6_combout $end
$var wire 1 "! inst3|Selector4~2_combout $end
$var wire 1 #! inst3|Selector4~5_combout $end
$var wire 1 $! inst3|Selector4~7_combout $end
$var wire 1 %! inst3|Selector5~0_combout $end
$var wire 1 &! inst3|Add0~1 $end
$var wire 1 '! inst3|Add0~3 $end
$var wire 1 (! inst3|Add0~4_combout $end
$var wire 1 )! inst3|Selector5~1_combout $end
$var wire 1 *! inst3|Add1~4_combout $end
$var wire 1 +! inst3|Add2~4_combout $end
$var wire 1 ,! inst3|Result~3_combout $end
$var wire 1 -! inst3|Selector5~2_combout $end
$var wire 1 .! inst3|Selector5~3_combout $end
$var wire 1 /! inst3|Selector5~4_combout $end
$var wire 1 0! inst3|Selector5~5_combout $end
$var wire 1 1! inst3|Add0~2_combout $end
$var wire 1 2! inst3|Selector6~1_combout $end
$var wire 1 3! inst3|Add1~2_combout $end
$var wire 1 4! inst3|Selector6~2_combout $end
$var wire 1 5! inst3|Add2~2_combout $end
$var wire 1 6! inst3|Selector6~3_combout $end
$var wire 1 7! inst3|Selector6~4_combout $end
$var wire 1 8! inst3|Selector6~5_combout $end
$var wire 1 9! inst3|Selector6~6_combout $end
$var wire 1 :! inst3|Add1~0_combout $end
$var wire 1 ;! inst3|Selector7~1_combout $end
$var wire 1 <! inst3|Selector7~2_combout $end
$var wire 1 =! inst3|Selector7~5_combout $end
$var wire 1 >! inst3|Add0~0_combout $end
$var wire 1 ?! inst3|Selector7~6_combout $end
$var wire 1 @! inst3|Selector7~7_combout $end
$var wire 1 A! inst3|Selector7~8_combout $end
$var wire 1 B! inst3|Selector7~10_combout $end
$var wire 1 C! inst3|Add0~5 $end
$var wire 1 D! inst3|Add0~7 $end
$var wire 1 E! inst3|Add0~9 $end
$var wire 1 F! inst3|Add0~11 $end
$var wire 1 G! inst3|Add0~13 $end
$var wire 1 H! inst3|Add0~14_combout $end
$var wire 1 I! inst3|Selector0~1_combout $end
$var wire 1 J! inst3|Add2~7 $end
$var wire 1 K! inst3|Add2~9 $end
$var wire 1 L! inst3|Add2~11 $end
$var wire 1 M! inst3|Add2~13 $end
$var wire 1 N! inst3|Add2~14_combout $end
$var wire 1 O! inst3|Selector0~3_combout $end
$var wire 1 P! inst3|Selector0~4_combout $end
$var wire 1 Q! inst3|Selector0~5_combout $end
$var wire 1 R! inst3|Selector0~6_combout $end
$var wire 1 S! inst3|Add0~12_combout $end
$var wire 1 T! inst3|Selector1~1_combout $end
$var wire 1 U! inst3|Add1~7 $end
$var wire 1 V! inst3|Add1~9 $end
$var wire 1 W! inst3|Add1~11 $end
$var wire 1 X! inst3|Add1~12_combout $end
$var wire 1 Y! inst3|Selector1~4_combout $end
$var wire 1 Z! inst3|Add2~12_combout $end
$var wire 1 [! inst3|Selector1~2_combout $end
$var wire 1 \! inst3|Selector1~3_combout $end
$var wire 1 ]! inst3|Selector1~5_combout $end
$var wire 1 ^! inst3|Selector1~6_combout $end
$var wire 1 _! inst3|Add0~10_combout $end
$var wire 1 `! inst3|Selector2~1_combout $end
$var wire 1 a! inst3|Add2~10_combout $end
$var wire 1 b! inst3|Result~4_combout $end
$var wire 1 c! inst3|Selector2~3_combout $end
$var wire 1 d! inst3|Selector2~4_combout $end
$var wire 1 e! inst3|Selector2~5_combout $end
$var wire 1 f! inst3|Add0~8_combout $end
$var wire 1 g! inst3|Selector3~1_combout $end
$var wire 1 h! inst3|Selector3~3_combout $end
$var wire 1 i! inst3|Add2~8_combout $end
$var wire 1 j! inst3|Selector3~4_combout $end
$var wire 1 k! inst3|Add1~8_combout $end
$var wire 1 l! inst3|Selector3~2_combout $end
$var wire 1 m! inst3|Selector3~5_combout $end
$var wire 1 n! inst3|Selector3~6_combout $end
$var wire 1 o! inst3|Result [7] $end
$var wire 1 p! inst3|Result [6] $end
$var wire 1 q! inst3|Result [5] $end
$var wire 1 r! inst3|Result [4] $end
$var wire 1 s! inst3|Result [3] $end
$var wire 1 t! inst3|Result [2] $end
$var wire 1 u! inst3|Result [1] $end
$var wire 1 v! inst3|Result [0] $end
$var wire 1 w! inst2|Q [7] $end
$var wire 1 x! inst2|Q [6] $end
$var wire 1 y! inst2|Q [5] $end
$var wire 1 z! inst2|Q [4] $end
$var wire 1 {! inst2|Q [3] $end
$var wire 1 |! inst2|Q [2] $end
$var wire 1 }! inst2|Q [1] $end
$var wire 1 ~! inst2|Q [0] $end
$var wire 1 !" inst|Q [7] $end
$var wire 1 "" inst|Q [6] $end
$var wire 1 #" inst|Q [5] $end
$var wire 1 $" inst|Q [4] $end
$var wire 1 %" inst|Q [3] $end
$var wire 1 &" inst|Q [2] $end
$var wire 1 '" inst|Q [1] $end
$var wire 1 (" inst|Q [0] $end
$var wire 1 )" B~combout [7] $end
$var wire 1 *" B~combout [6] $end
$var wire 1 +" B~combout [5] $end
$var wire 1 ," B~combout [4] $end
$var wire 1 -" B~combout [3] $end
$var wire 1 ." B~combout [2] $end
$var wire 1 /" B~combout [1] $end
$var wire 1 0" B~combout [0] $end
$var wire 1 1" A~combout [7] $end
$var wire 1 2" A~combout [6] $end
$var wire 1 3" A~combout [5] $end
$var wire 1 4" A~combout [4] $end
$var wire 1 5" A~combout [3] $end
$var wire 1 6" A~combout [2] $end
$var wire 1 7" A~combout [1] $end
$var wire 1 8" A~combout [0] $end
$upscope $end
$upscope $end
$enddefinitions $end
#0
$dumpvars
b11 !
0"
b1 #
0$
1%
1&
1'
0(
0)
0*
0.
0-
0,
0+
02
01
00
0/
x3
04
15
x6
17
18
19
0:
0;
0<
1=
0>
0?
0@
0A
0B
0C
0D
0E
0F
0G
0H
0I
0J
0K
0L
0M
1N
0O
0P
0Q
0R
0S
1T
0U
1V
0W
1X
0Y
0Z
1[
0\
1]
1^
0_
0`
0a
0b
0c
0d
0e
0f
0g
0h
0i
1j
0k
1l
0m
0n
0o
0p
0q
1r
0s
1t
0u
1v
0w
1x
0y
0z
0{
1|
0}
1~
0!!
0"!
0#!
0$!
0%!
0&!
1'!
0(!
0)!
0*!
0+!
0,!
0-!
0.!
0/!
00!
01!
02!
03!
04!
05!
06!
07!
08!
09!
0:!
0;!
0<!
0=!
0>!
0?!
0@!
0A!
0B!
0C!
1D!
0E!
1F!
0G!
0H!
0I!
0J!
1K!
0L!
1M!
0N!
0O!
0P!
0Q!
0R!
0S!
0T!
0U!
1V!
0W!
0X!
0Y!
0Z!
0[!
0\!
0]!
0^!
0_!
0`!
0a!
0b!
0c!
0d!
0e!
0f!
0g!
0h!
0i!
0j!
0k!
0l!
0m!
0n!
0v!
0u!
0t!
0s!
0r!
0q!
0p!
0o!
0~!
0}!
0|!
0{!
0z!
0y!
0x!
0w!
0("
0'"
0&"
0%"
0$"
0#"
0""
0!"
10"
0/"
0."
0-"
0,"
0+"
0*"
0)"
18"
17"
06"
05"
04"
03"
02"
01"
$end
#10000
1"
1L
1M
03
#20000
1$
0"
1J
0L
0M
1K
13
1~!
1m
1k
1("
1}!
1?!
1&!
1A
1;!
1w
0v
1n
0l
1\
1q
1C
16!
11!
13!
1s
15!
0T
0'!
01!
1h!
1[!
1O!
1-!
1y
1H
17!
14!
0t
1+!
1U
1(!
18!
1J!
1u
1/!
0V
19!
0K!
1i!
1z
10!
1W
1L!
1a!
1j!
1#!
0X
0M!
1Z!
1d!
1m!
1$!
1Y
1N!
1\!
1e!
1n!
1Z
1P!
1]!
1{
0n
1^!
0m!
1c!
0]!
1.!
0#!
0n!
0d!
0^!
0/!
0$!
0e!
00!
#30000
1"
1L
1M
03
1u!
1-
#40000
0$
0"
0J
0L
0M
0K
13
#50000
1"
1L
1M
03
#60000
1$
0"
1J
0L
0M
1K
13
0m
1_
0;!
0{
1v
0\
1B
0x
1`
1m!
1]!
1Q!
1#!
1d!
04!
1/!
06!
1n!
1^!
1R!
1$!
1e!
10!
07!
08!
09!
#70000
1"
1L
1M
03
1r!
1q!
1p!
1o!
0u!
1t!
1s!
12
11
10
1/
0-
1,
1+
#80000
0$
0"
0J
0L
0M
0K
13
#90000
1"
1L
1M
03
#100000
1$
0"
1J
0L
0M
1K
13
1a
0_
1b
0`
0A
1x
0B
1=!
16!
0=!
1B!
17!
0B!
18!
19!
#110000
1"
1L
1M
03
1u!
1-
#120000
0$
0"
0J
0L
0M
0K
13
#130000
1"
1L
1M
03
#140000
1$
0"
1J
0L
0M
1K
13
1c
0a
1%!
0q
1p
1d
0b
1I
1G
1F
1D
0w
1A
09!
0h!
0[!
0O!
0-!
0y
0H
1B
0j!
0\!
0P!
0.!
0z
0c!
0m!
0]!
0Q!
0/!
0#!
0d!
#150000
1"
1L
1M
03
0u!
0-
#160000
0$
0"
0J
0L
0M
0K
13
#170000
1"
1L
1M
03
#180000
1$
0"
1J
0L
0M
1K
13
1e
0c
1{
1f
0d
0%!
1q
0p
0I
0G
0F
0D
08!
00!
0n!
0e!
0^!
0R!
1=!
19!
0$!
09!
1B!
#190000
1"
1L
1M
03
0r!
0q!
0p!
0o!
1v!
0t!
0s!
02
01
00
0/
1.
0,
0+
#200000
0$
0"
0J
0L
0M
0K
13
#210000
1"
1L
1M
03
#220000
1$
0"
1J
0L
0M
1K
13
1g
0e
0x
1h
0f
0C
0{
0=!
18!
0B!
19!
#230000
1"
1L
1M
03
0v!
1u!
0.
1-
#240000
0$
0"
0J
0L
0M
0K
13
#250000
1"
1L
1M
03
#260000
1$
0"
1J
0L
0M
1K
13
1i
0g
0j
0h
1x
1C
1=!
1B!
#270000
1"
1L
1M
03
1v!
1.
#280000
0$
0"
0J
0L
0M
0K
13
#290000
1"
1L
1M
03
#300000
1$
0"
1J
0L
0M
1K
13
0k
0i
1)!
0q
1l
1j
0C
10!
0=!
09!
0B!
#310000
1"
1L
1M
03
0v!
0u!
1t!
0.
0-
1,
#320000
0$
0"
0J
0L
0M
0K
13
#330000
1"
1L
1M
03
#340000
1$
0"
1J
0L
0M
1K
13
1m
1k
1;!
1{
1w
0v
0l
1\
0B
0)!
1q
1C
1c!
08!
1.!
1h!
1[!
1O!
1-!
1y
1H
1j!
1d!
1\!
1P!
14!
1/!
1z
00!
19!
0d!
09!
0/!
1e!
18!
10!
0e!
00!
19!
#350000
1"
1L
1M
03
1u!
0t!
1-
0,
#360000
0$
0"
0J
0L
0M
0K
13
#370000
1"
1L
1M
03
#380000
1$
0"
1J
0L
0M
1K
13
0m
1_
0;!
0{
1v
0\
1B
0x
1`
1m!
1]!
1Q!
1#!
1d!
04!
1/!
06!
1n!
1^!
1R!
1$!
1e!
10!
07!
08!
09!
#390000
1"
1L
1M
03
1r!
1q!
1p!
1o!
0u!
1t!
1s!
12
11
10
1/
0-
1,
1+
#400000
0$
0"
0J
0L
0M
0K
13
#410000
1"
1L
1M
03
#420000
1$
0"
1J
0L
0M
1K
13
1a
0_
1b
0`
0A
1x
0B
1=!
16!
0=!
1B!
17!
0B!
18!
19!
#430000
1"
1L
1M
03
1u!
1-
#440000
0$
0"
0J
0L
0M
0K
13
#450000
1"
1L
1M
03
#460000
1$
0"
1J
0L
0M
1K
13
1c
0a
1%!
0q
1p
1d
0b
1I
1G
1F
1D
0w
1A
09!
0h!
0[!
0O!
0-!
0y
0H
1B
0j!
0\!
0P!
0.!
0z
0c!
0m!
0]!
0Q!
0/!
0#!
0d!
#470000
1"
1L
1M
03
0u!
0-
#480000
0$
0"
0J
0L
0M
0K
13
#490000
1"
1L
1M
03
